<svg xmlns="http://www.w3.org/2000/svg" width="36.528" height="22.902" viewBox="0 0 36.528 22.902">
  <g id="arrow-gray" transform="translate(-1804.9 -2100.983)">
    <line id="Line_105" data-name="Line 105" x2="34" transform="translate(1805.5 2112.405)" fill="none" stroke="#868686" stroke-linecap="round" stroke-width="1.2"/>
    <line id="Line_106" data-name="Line 106" x2="10.537" y2="10.537" transform="translate(1830.043 2101.832)" fill="none" stroke="#868686" stroke-linecap="round" stroke-width="1.2"/>
    <line id="Line_107" data-name="Line 107" y1="10.537" x2="10.537" transform="translate(1830.043 2112.5)" fill="none" stroke="#868686" stroke-linecap="round" stroke-width="1.2"/>
  </g>
</svg>
