<svg xmlns="http://www.w3.org/2000/svg" width="70" height="70.001" viewBox="0 0 70 70.001">
  <path id="logo-white" d="M35,70h-.011A35.009,35.009,0,0,1,21.381,2.749,34.782,34.782,0,0,1,35,0h.012A35.009,35.009,0,0,1,48.621,67.251,34.78,34.78,0,0,1,35,70h0ZM35,2.8A32.2,32.2,0,1,0,67.2,35,32.237,32.237,0,0,0,35,2.8ZM22.423,62.962h0a30.648,30.648,0,0,1-8.764-6c.247-.2.508-.427.785-.672.94-.833,2-1.778,3.063-1.778a1.7,1.7,0,0,1,.317.03,5.156,5.156,0,0,1,3.5,2.483,1.607,1.607,0,0,0,2.793,0l.3-.515a2.4,2.4,0,0,1,4.232,0l.648,1.128a1.608,1.608,0,0,0,2.795,0L35.78,51.25a3.4,3.4,0,0,1,5.887,0l2.769,4.8a1.608,1.608,0,0,0,2.795,0,1.607,1.607,0,0,1,2.793,0l.552.948a1.607,1.607,0,0,0,2.793,0,.645.645,0,0,1,.59-.368,2.853,2.853,0,0,1,1.084.367,5.616,5.616,0,0,0,.868.358l-.118.112c-2.025,1.919-3.487,3.306-5.217,3.989l-1.908-.908a1.283,1.283,0,0,0-2.23,0,.923.923,0,0,1-1.594,0l-.312-.552a.922.922,0,0,0-1.594,0,.924.924,0,0,1-1.6,0L39.76,57.233a1.943,1.943,0,0,0-3.369,0l-2.134,3.717a.924.924,0,0,1-1.643,0l-.372-.648a1.391,1.391,0,0,0-2.4,0l-.168.3a.923.923,0,0,1-1.6,0,2.938,2.938,0,0,0-5.108,0l-.55,2.358Zm37.205-9.881v0l-2.049-4.721a2.05,2.05,0,0,0-3.956,0,1.463,1.463,0,0,1-2.843,0l-.563-1.3a1.463,1.463,0,0,0-2.841,0,1.463,1.463,0,0,1-2.843,0l-2.8-6.486a3.392,3.392,0,0,0-2.994-2.3,3.408,3.408,0,0,0-3,2.3l-3.752,8.669a1.463,1.463,0,0,1-2.841,0l-.66-1.535a2.439,2.439,0,0,0-2.151-1.655,2.423,2.423,0,0,0-2.142,1.655l-.3.7a1.463,1.463,0,0,1-2.841,0c-.946-2.185-2.64-3.489-4.532-3.489s-3.586,1.3-4.532,3.489L10.06,52.841A30.432,30.432,0,0,1,4.5,37.589c.342.021.7.032,1.057.032A17.765,17.765,0,0,0,8.5,37.374a6.21,6.21,0,0,1-.359,4.508,2.045,2.045,0,0,0,.134,1.971,1.553,1.553,0,0,0,1.247.7,1.243,1.243,0,0,0,.778-.272c1.124-.889,1.176-2.559.155-4.963a9.757,9.757,0,0,0-1.2-2.11A17.614,17.614,0,0,0,14.3,35.263a6.206,6.206,0,0,1,1.4,4.3,1.849,1.849,0,0,0,1.764,2.042,1.311,1.311,0,0,0,1.161-.639c.7-1.207.1-2.768-1.774-4.641a9.75,9.75,0,0,0-1.871-1.463,17.554,17.554,0,0,0,4.436-4.028v.072a6.19,6.19,0,0,1,2.866,3.513A2,2,0,0,0,24.107,35.8a1.369,1.369,0,0,0,1.42-1.11c.218-1.372-.9-2.619-3.321-3.7a9.778,9.778,0,0,0-2.313-.708,17.735,17.735,0,0,0,2.685-5.587,6.2,6.2,0,0,1,4.041,2.11,2.157,2.157,0,0,0,1.527.689,1.663,1.663,0,0,0,1.311-.615,1.266,1.266,0,0,0,.244-1.106c-.335-1.325-1.907-2.05-4.545-2.1l-.194,0a9.749,9.749,0,0,0-2.2.254,17.817,17.817,0,0,0,.408-5.612,6.226,6.226,0,0,1,4.46.563,2.446,2.446,0,0,0,1,.228,1.752,1.752,0,0,0,1.573-.907,1.307,1.307,0,0,0-.055-1.371,2.421,2.421,0,0,0-2.134-.957,8.826,8.826,0,0,0-2.817.586,9.742,9.742,0,0,0-2.1,1.056,17.607,17.607,0,0,0-1.366-4.8,6.219,6.219,0,0,1,4.4-1.043c.051,0,.1,0,.149,0a1.966,1.966,0,0,0,1.969-1.313,1.308,1.308,0,0,0-.427-1.508,2.031,2.031,0,0,0-1.185-.355,6.218,6.218,0,0,0-3.611,1.733A9.726,9.726,0,0,0,21.38,11.99c-.2-.406-.429-.829-.708-1.3A17.656,17.656,0,0,0,19.3,8.753,30.6,30.6,0,0,1,65.612,34.7,14.389,14.389,0,0,1,45.8,24.449c1.5-.443,3.132-1.633,2.4-4.8a6.254,6.254,0,0,0-2.013-3.513,1.614,1.614,0,0,1,.42-.491A4.5,4.5,0,0,1,48,15h.083a6.408,6.408,0,0,0,1.667-.732,3.544,3.544,0,0,0,1.283-4.232.581.581,0,0,0-1.079.432,2.392,2.392,0,0,1-.863,2.841,5.446,5.446,0,0,1-1.38.587h-.072a5.525,5.525,0,0,0-1.739.828,2.7,2.7,0,0,0-.719.828H45.1a3.242,3.242,0,0,0-2.171,0h-.083a2.717,2.717,0,0,0-.719-.828,5.551,5.551,0,0,0-1.739-.828h-.072a5.446,5.446,0,0,1-1.38-.587,2.39,2.39,0,0,1-.863-2.841.581.581,0,1,0-1.079-.432,3.544,3.544,0,0,0,1.283,4.232A6.394,6.394,0,0,0,39.941,15h.072a4.558,4.558,0,0,1,1.391.648,1.613,1.613,0,0,1,.42.491,6.258,6.258,0,0,0-2.015,3.573,4.187,4.187,0,0,0,.285,3.255,3.706,3.706,0,0,0,2.389,1.54,17.726,17.726,0,0,0,.432,1.871,9.716,9.716,0,0,0-2.182-.336c-.157-.006-.312-.008-.463-.008-2.292,0-3.767.659-4.154,1.856a1.226,1.226,0,0,0,.2,1.1,1.708,1.708,0,0,0,1.384.686,2.151,2.151,0,0,0,1.421-.591,6.227,6.227,0,0,1,4.041-1.882,17.666,17.666,0,0,0,1.75,3.658,9.714,9.714,0,0,0-2.3.611c-2.377.958-3.6,2.235-3.454,3.6a1.4,1.4,0,0,0,1.464,1.145A1.957,1.957,0,0,0,42.4,34.928a6.218,6.218,0,0,1,2.962-3.382,17.877,17.877,0,0,0,3.6,3.873A9.764,9.764,0,0,0,47,36.7c-1.944,1.689-2.689,3.29-2.1,4.508a1.3,1.3,0,0,0,1.2.692,1.9,1.9,0,0,0,1.817-1.891,6.206,6.206,0,0,1,1.7-4.173,17.661,17.661,0,0,0,4.688,2.4A9.732,9.732,0,0,0,53,40.156c-1.224,2.25-1.364,4.008-.4,4.952a1.175,1.175,0,0,0,.839.329,1.662,1.662,0,0,0,1.284-.664A2.06,2.06,0,0,0,55,42.938a6.23,6.23,0,0,1,.12-4.473,17.7,17.7,0,0,0,4.8.672H60.4a9.8,9.8,0,0,0-.7,2.3c-.443,2.558-.017,4.261,1.2,4.8a1.205,1.205,0,0,0,.488.1,1.533,1.533,0,0,0,1.306-.84,2,2,0,0,0-.212-2.091,6.213,6.213,0,0,1-1.319-4.329,17.676,17.676,0,0,0,4.221-.827A30.464,30.464,0,0,1,59.63,53.079ZM5.621,34.344c-.405,0-.816-.017-1.22-.052A30.588,30.588,0,0,1,16.571,10.6a14.475,14.475,0,0,1,1.283,1.787A14.389,14.389,0,0,1,5.621,34.344Z" fill="#fff"/>
</svg>
