<svg xmlns="http://www.w3.org/2000/svg" width="100" height="100" viewBox="0 0 100 100">
  <g id="nav-open-bt" transform="translate(-1680 -50)">
    <path id="Polygon_1" data-name="Polygon 1" d="M48.586,1.414a2,2,0,0,1,2.828,0L98.586,48.586a2,2,0,0,1,0,2.828L51.414,98.586a2,2,0,0,1-2.828,0L1.414,51.414a2,2,0,0,1,0-2.828Z" transform="translate(1680 50)" fill="#e67817"/>
    <g id="Group_15702" data-name="Group 15702" transform="translate(395 3)">
      <line id="Line_110" data-name="Line 110" x2="30" transform="translate(1320 87)" fill="none" stroke="#fff" stroke-width="1.5"/>
      <line id="Line_111" data-name="Line 111" x2="30" transform="translate(1320 97)" fill="none" stroke="#fff" stroke-width="1.5"/>
      <line id="Line_112" data-name="Line 112" x2="30" transform="translate(1320 107)" fill="none" stroke="#fff" stroke-width="1.5"/>
    </g>
  </g>
</svg>
